s04
s02
s10
s01
s08
s05
s09
c01
s06
s03
s11
s07
c01
c01

s08
s10
s02
s09
s03
s04
s05
c01
s07
s11
w01
s01
s06
c01
c01

s08
s05
s11
w01
s07
s01
s10
c01
s02
s06
s03
s09
s04
c01
c01

s09
s04
s01
s03
s11
s05
s06
c01
s07
s02
w01
s08
s10
c01
c01

s02
s11
s05
w01
s07
s09
s10
c01
s01
s03
s04
s06
s08
c01
c01

